{
  "response": {
    "meetings": [
      {
        "id": "2",
        "startTime": "2022-03-25T08:00:00.000Z",
        "endTime": "2022-03-25T09:00:00.000Z",
        "userIds": ["juh"],
        "roomId": "11",
        "purpose": "Daily"
      },
      {
        "id": "3",
        "startTime": "2022-03-25T09:00:00.000Z",
        "endTime": "2022-03-25T10:00:00.000Z",
        "userIds": ["mig"],
        "roomId": "11",
        "purpose": "Retrospective"
      },
      {
        "id": "4",
        "startTime": "2022-03-25T10:00:00.000Z",
        "endTime": "2022-03-25T11:00:00.000Z",
        "userIds": ["juh"],
        "roomId": "11",
        "purpose": "Recruitment"
      },
      {
        "id": "5",
        "startTime": "2022-03-25T11:00:00.000Z",
        "endTime": "2022-03-25T12:00:00.000Z",
        "userIds": ["juh"],
        "roomId": "11",
        "purpose": "Coffee break"
      },
      {
        "id": "6",
        "startTime": "2022-03-25T12:00:00.000Z",
        "endTime": "2022-03-25T13:00:00.000Z",
        "userIds": ["juh"],
        "roomId": "11",
        "purpose": "Gerald bot consultation"
      },
      {
        "id": "7",
        "startTime": "2022-03-25T13:00:00.000Z",
        "endTime": "2022-03-25T14:00:00.000Z",
        "userIds": ["juh"],
        "roomId": "11",
        "purpose": "Lunch"
      },
      {
        "id": "8",
        "startTime": "2022-03-25T14:00:00.000Z",
        "endTime": "2022-03-25T15:00:00.000Z",
        "userIds": ["juh"],
        "roomId": "11",
        "purpose": "Dinner"
      },
      {
        "id": "10",
        "startTime": "2022-03-26T08:00:00.000Z",
        "endTime": "2022-03-26T09:00:00.000Z",
        "userIds": ["ant"],
        "roomId": "11",
        "purpose": "Udemy for business account consultation"
      }
    ],
    "users": [
      {
        "id": "juh",
        "name": "Juha",
        "meetingIds": ["2", "4", "5", "6", "7", "8"]
      },
      {
        "id": "mig",
        "name": "Miguel",
        "meetingIds": ["3"]
      },
      {
        "id": "ant",
        "name": "Anton",
        "meetingIds": ["10"]
      },
      {
        "id": "mar",
        "name": "Maria",
        "meetingIds": []
      },
      {
        "id": "oss",
        "name": "Ossi",
        "meetingIds": []
      },
      {
        "id": "ali",
        "name": "Aliisa",
        "meetingIds": []
      }
    ],
    "rooms": [
      { "id": "11", "capacity": 3, "name": "CEO's room" },
      { "id": "12", "capacity": 6, "name": "Auditorium" }
    ]
  }
}
